autoGAM vignette • autoGAM
…
Now that we have the general idea about how autoGAM works, it’s time to wrap everything up by mentioning final details in the form of an example.

Example on iris data

This time we are interested in evaluation of two completely random functions that one of them has a vector output and the other one has a matrix output.

We first perform some modifications on iris data and then we introduce our desired functions:

(my_iris <- iris %>% filter(Species %in% unique(Species)[1:2]) %>%
   
   as_tibble %>% mutate_at('Species',as.character))
#> # A tibble: 100 x 5
#>    Sepal.Length Sepal.Width Petal.Length Petal.Width Species
#>           <dbl>       <dbl>        <dbl>       <dbl> <chr>  
#>  1          5.1         3.5          1.4         0.2 setosa 
#>  2          4.9         3            1.4         0.2 setosa 
#>  3          4.7         3.2          1.3         0.2 setosa 
#>  4          4.6         3.1          1.5         0.2 setosa 
#>  5          5           3.6          1.4         0.2 setosa 
#>  6          5.4         3.9          1.7         0.4 setosa 
#>  7          4.6         3.4          1.4         0.3 setosa 
#>  8          5           3.4          1.5         0.2 setosa 
#>  9          4.4         2.9          1.4         0.2 setosa 
#> 10          4.9         3.1          1.5         0.1 setosa 
#> # ... with 90 more rows
…
