autoGAM — autoGAM • autoGAM
…
5- $`Best forms plot(s)`: Plots with corresponding confidence intervals (alpha = interval.alpha) of predictions for final best model of each continuous predictor.

6- $`Final GAM`: Final fitted GAM based on final predictors in the $`Final predictors` part.

    Author

    Shahin Roshani

    Examples

autoGAM(resp='mpg',cont.vars=names(mtcars)[3:6],cat.vars='vs',data=mtcars,forms.plot=TRUE)

#> $`Forms data`
#> # A tibble: 28 x 4
#>    var   form           data                aic
#>    <chr> <chr>          <list>            <dbl>
#>  1 disp  identity(disp) <tibble [29 x 6]>  152.
#>  2 hp    identity(hp)   <tibble [30 x 6]>  163.
#>  3 drat  identity(drat) <tibble [30 x 6]>  176.
#>  4 wt    identity(wt)   <tibble [27 x 6]>  131.
#>  5 disp  logb(disp)     <tibble [30 x 6]>  138.
#>  6 hp    logb(hp)       <tibble [29 x 6]>  145.
#>  7 drat  logb(drat)     <tibble [28 x 6]>  165.
#>  8 wt    logb(wt)       <tibble [27 x 6]>  128.
#>  9 disp  exp(disp)      <tibble [30 x 6]>  188.
#> 10 hp    exp(hp)        <tibble [30 x 6]>  193.
#> # ... with 18 more rows
…
